{
    "page": 1,
    "total_results": 176,
    "total_pages": 9,
    "results": [
        {
            "vote_count": 2,
            "id": 482088,
            "video": false,
            "vote_average": 10,
            "title": "Better Start Running",
            "popularity": 1.147,
            "poster_path": "/wv3U9nSjJDWPoSK99da6X8ypJAs.jpg",
            "original_language": "en",
            "original_title": "Better Start Running",
            "genre_ids": [
                18,
                35
            ],
            "backdrop_path": "/qRocYlYL9saXW6Eq1bD08rDhXlJ.jpg",
            "adult": false,
            "overview": "An eclectic band of misfits becomes an unlikely family as they take a wild journey in the name of love while on the run from an overzealous FBI duo who want them dead or alive - preferably dead.",
            "release_date": "2018-04-28"
        },
        {
            "vote_count": 13,
            "id": 19753,
            "video": false,
            "vote_average": 5.6,
            "title": "Start the Revolution Without Me",
            "popularity": 1.554,
            "poster_path": "/abw7BKoi50gtDexKuGjDZ94cZH0.jpg",
            "original_language": "en",
            "original_title": "Start the Revolution Without Me",
            "genre_ids": [
                35,
                36
            ],
            "backdrop_path": "/bEpTI0VkQomUxLfsh3WhXkNB9Bz.jpg",
            "adult": false,
            "overview": "An account of the adventures of two sets of identical twins, badly scrambled at birth, on the eve of the French Revolution. One set is haughty and aristocratic, the other poor and somewhat dim. They find themselves involved in palace intrigues as history happens around them. Based, very loosely, on Dickens's \"A Tale of Two Cities,\" Dumas's \"The Corsican Brothers,\" etc.",
            "release_date": "1970-08-14"
        },
        {
            "vote_count": 0,
            "id": 309849,
            "video": false,
            "vote_average": 0,
            "title": "False Start",
            "popularity": 0.6,
            "poster_path": "/3PIoxHc8Ed4rKwtByF2jWt1r5NW.jpg",
            "original_language": "fr",
            "original_title": "Faux départ",
            "genre_ids": [],
            "backdrop_path": null,
            "adult": false,
            "overview": "",
            "release_date": "2006-01-01"
        },
        {
            "vote_count": 1,
            "id": 260490,
            "video": false,
            "vote_average": 5,
            "title": "When the Dead Start Singing",
            "popularity": 0.874,
            "poster_path": "/aFGldLnWGOI2B2cfMOg7sMSzyq6.jpg",
            "original_language": "hr",
            "original_title": "Kad mrtvi zapjevaju",
            "genre_ids": [
                35,
                18,
                12
            ],
            "backdrop_path": null,
            "adult": false,
            "overview": "At the beginning of 1990s, two Croatian emigrants, economically minded Cinco and politically minded Marinko, arrive in Croatia from Germany, homesick for their families and hometowns. In order to get a German pension, Cinco pretends to be dead and travels in a coffin. Soon, Marinko joins him because he is running away from an old agent of the Yugoslav State Security Service. On their trip in a motor hearse, Cinco and Marinko face many adventures, which culminate when they are stopped at Serbian barricades close to their destination.",
            "release_date": "1998-07-29"
        },
        {
            "vote_count": 1,
            "id": 28150,
            "video": false,
            "vote_average": 8,
            "title": "Press Start",
            "popularity": 0.6,
            "poster_path": "/rHXGWUSrIZv8Dpx7spsosboennH.jpg",
            "original_language": "en",
            "original_title": "Press Start",
            "genre_ids": [
                35,
                878
            ],
            "backdrop_path": "/e7fdtVvaIYq6SaW1tR7Mr1Kjp6.jpg",
            "adult": false,
            "overview": "Average suburban youth Zack Nimbus is recruited by an ill-tempered ninja and a tough-as-nails space soldier to save the world from a tyrannical, but comically insecure, sorcerer.",
            "release_date": "2007-01-01"
        },
        {
            "vote_count": 0,
            "id": 109763,
            "video": false,
            "vote_average": 0,
            "title": "Dead Start",
            "popularity": 0.6,
            "poster_path": null,
            "original_language": "en",
            "original_title": "Dead Start",
            "genre_ids": [],
            "backdrop_path": null,
            "adult": false,
            "overview": "A zombie plague takes over the United States.",
            "release_date": ""
        },
        {
            "vote_count": 0,
            "id": 128825,
            "video": false,
            "vote_average": 0,
            "title": "Start Cheering",
            "popularity": 0.6,
            "poster_path": "/ysXSsDcoeDTwa8ehZ3oWMwtxBDA.jpg",
            "original_language": "en",
            "original_title": "Start Cheering",
            "genre_ids": [
                35
            ],
            "backdrop_path": "/bLBbsZWdjEix5eRzmmzy2Jdly6I.jpg",
            "adult": false,
            "overview": "Snappy collegiate musical about rugged movie star Starrett going back to school, with cohorts Connolly and Durante tagging along.",
            "release_date": "1938-03-03"
        },
        {
            "vote_count": 0,
            "id": 456313,
            "video": false,
            "vote_average": 0,
            "title": "Start Line",
            "popularity": 0.6,
            "poster_path": "/ApgfZwxSUDOIR2c4XXiwSriOtfC.jpg",
            "original_language": "ja",
            "original_title": "Start Line",
            "genre_ids": [
                99
            ],
            "backdrop_path": null,
            "adult": false,
            "overview": "3,824 kilometers in 57 days: in the summer of 2015, filmmaker Ayako IMAMURA, who was born deaf, started a bicycle journey through Japan. For her this was a physical challenge and an experiment in communication. Having felt frustrated when communicating with hearing people, she decided to confront the problem head on, exploring not only her country, but also herself in this documentary road movie.",
            "release_date": "2016-08-27"
        },
        {
            "vote_count": 0,
            "id": 266136,
            "video": false,
            "vote_average": 0,
            "title": "When the Pigeons Start Flying",
            "popularity": 0.805,
            "poster_path": "/1of5MCPpq7sCgKNrOFwW2R3cYQ0.jpg",
            "original_language": "sr",
            "original_title": "Kad golubovi polete",
            "genre_ids": [
                10751,
                35
            ],
            "backdrop_path": null,
            "adult": false,
            "overview": "A group of children build a loft in an abandoned yard, but instead of pigeons, a man and his two sons move into it. At first, boys try to get rid of the unwanted intruders, but eventually they befriend with them. However, the municipality sends their men to tear down the illegal housing, but the children decide to stop them at all costs.",
            "release_date": "1968-07-16"
        },
        {
            "vote_count": 0,
            "id": 314537,
            "video": false,
            "vote_average": 0,
            "title": "A Fresh Start",
            "popularity": 0.6,
            "poster_path": "/2qufZ1OKaOcKPH4cmxOopQzxmAp.jpg",
            "original_language": "ko",
            "original_title": "새출발",
            "genre_ids": [
                18
            ],
            "backdrop_path": null,
            "adult": false,
            "overview": "Finishing his military service, Jihyeon goes back to college, only to face difficult family issues and rumors to abolish departments of college he is belonged to. At a literary club meeting, Jihyeon meets Hyerin, who shares his concerns, and have an impulsive sex after the meeting.",
            "release_date": "2014-08-14"
        },
        {
            "vote_count": 1,
            "id": 474231,
            "video": false,
            "vote_average": 7,
            "title": "Life's Rocky Start",
            "popularity": 0.6,
            "poster_path": "/k029FDxJlSVYa3m4CT5Tj65LI9r.jpg",
            "original_language": "en",
            "original_title": "Life's Rocky Start",
            "genre_ids": [
                99
            ],
            "backdrop_path": null,
            "adult": false,
            "overview": "Four and a half billion years ago, the young Earth was a hellish place-a seething chaos of meteorite impacts, volcanoes belching noxious gases, and lightning flashing through a thin, torrid...",
            "release_date": "2016-01-13"
        },
        {
            "vote_count": 0,
            "id": 344626,
            "video": true,
            "vote_average": 0,
            "title": "P90X3 - Cold Start",
            "popularity": 0.6,
            "poster_path": "/g5D1PA9QhKnEOtNADM1hKwuJi9k.jpg",
            "original_language": "en",
            "original_title": "P90X3 - Cold Start",
            "genre_ids": [],
            "backdrop_path": null,
            "adult": false,
            "overview": "P90X3 - cold start warm up",
            "release_date": "2013-12-09"
        },
        {
            "vote_count": 8,
            "id": 20947,
            "video": false,
            "vote_average": 5.3,
            "title": "Moscow-Cassiopeia",
            "popularity": 2.241,
            "poster_path": "/aOl8VKRYprmC3OgvFYK96NSBDwS.jpg",
            "original_language": "ru",
            "original_title": "Moskva-Kassiopeya",
            "genre_ids": [
                878,
                10751,
                12,
                35
            ],
            "backdrop_path": "/rvGhF2p3fl5YVj0LurvJ2068PRN.jpg",
            "adult": false,
            "overview": "Start of interstellar expedition equipped by \"pioneers\"(soviet scouts).",
            "release_date": "1973-09-23"
        },
        {
            "vote_count": 6,
            "id": 96243,
            "video": false,
            "vote_average": 6.1,
            "title": "I Start Counting",
            "popularity": 0.6,
            "poster_path": "/tWf74z9BAuD4DcwoV3iW7VTOSdZ.jpg",
            "original_language": "en",
            "original_title": "I Start Counting",
            "genre_ids": [
                53
            ],
            "backdrop_path": "/javJFbInmOEMnRFwGhjAMEfCMWD.jpg",
            "adult": false,
            "overview": "Jenny Agutter plays Wynne, an adopted 14-year-old girl who has a crush on her 32-year-old stepbrother, George, played by Bryan Marshall. While spying on George in the bathroom, Wynne notices George has several scratches on his back, and finds a bloody sweater she made for him that he threw in the trash, which leads her to suspect George of being the serial killer of several local teenage girls, who is still at large. Despite this belief, Wynne continues to have romantic sexual fantasies about George and dreams of marrying him when she comes of legal age.",
            "release_date": "1970-10-27"
        },
        {
            "vote_count": 0,
            "id": 231614,
            "video": false,
            "vote_average": 0,
            "title": "Start of Something",
            "popularity": 0.6,
            "poster_path": "/xfW5lu90dXaDHrodcvpMhH9I45q.jpg",
            "original_language": "en",
            "original_title": "Start of Something",
            "genre_ids": [
                18,
                10749
            ],
            "backdrop_path": null,
            "adult": false,
            "overview": "A different story about first love.",
            "release_date": "2014-01-01"
        },
        {
            "vote_count": 0,
            "id": 113859,
            "video": false,
            "vote_average": 0,
            "title": "Start The Fire",
            "popularity": 0.6,
            "poster_path": null,
            "original_language": "en",
            "original_title": "Start The Fire",
            "genre_ids": [],
            "backdrop_path": "/dzUWNs1dPFa7LR4hzwTaBxSR8qj.jpg",
            "adult": false,
            "overview": "Start the fire",
            "release_date": ""
        },
        {
            "vote_count": 0,
            "id": 406063,
            "video": false,
            "vote_average": 0,
            "title": "Start Stop Die Run",
            "popularity": 0.6,
            "poster_path": "/qqlrXETXhd1Yj46CtmnXwXMsGGv.jpg",
            "original_language": "es",
            "original_title": "Start Stop Die Run",
            "genre_ids": [
                53,
                9648
            ],
            "backdrop_path": null,
            "adult": false,
            "overview": "Everyone ends their life story with their death, others are just beginning.",
            "release_date": "2011-01-02"
        },
        {
            "vote_count": 0,
            "id": 60126,
            "video": false,
            "vote_average": 0,
            "title": "Press Start 2 Continue",
            "popularity": 0.6,
            "poster_path": "/kl7EuCL8UZLQWGJqWzRzOpStCMu.jpg",
            "original_language": "en",
            "original_title": "Press Start 2 Continue",
            "genre_ids": [
                35
            ],
            "backdrop_path": "/mlgzOhhh95vu3dBebpQtORIUCqm.jpg",
            "adult": false,
            "overview": "In this sequel to the acclaimed videogame comedy PRESS START, the world's most inexplicably accomplished evil sorcerer, Count Vile, has returned from Hades for a new bid at global domination. With original champions Zack and Sam already in his clutches, it's up to their estranged, ultraviolent comrade Lin-Ku and the bubbly, positive-thinking Princess Xanna to save them – and the world – from disaster. PRESS START 2 CONTINUE also adds fan favorite characters from the \"Press Start Adventures\" animated web series including the sardonic vampire lord Vlad (David S. Humphrey, Sonic Adventure 2 &amp; Jack Keane), sinister succubus Morgan Le Slay, and white-haired assassin Scarthcaroth. Web personalities Noah Antwiler, Stuart Ashen, Lindsey \"Z\" Briggs, and X-Strike Studios' Tim Ekkebus &amp; Rory O’Boyle also join the cast.",
            "release_date": "2011-03-11"
        },
        {
            "vote_count": 0,
            "id": 71036,
            "video": false,
            "vote_average": 0,
            "title": "Kick Start 2",
            "popularity": 0.6,
            "poster_path": "/jfqizYZurTTRn1NIgpHckzLmSJ5.jpg",
            "original_language": "en",
            "original_title": "Kick Start 2",
            "genre_ids": [
                28,
                35
            ],
            "backdrop_path": "/hcdlq2tBo43jmCGn0RiS6b1hIgR.jpg",
            "adult": false,
            "overview": "From the editors of the world’s best-selling motocross magazine comes Kickstart 2 DVD: the sequel to 2009’s TransWorld Motocross blockbuster, Kickstart, The Movie. Featuring four decades worth of the best riders in our sport, KS2 has something for everyone, both young and old. Filmed in exclusive sessions in private locations, KS2 offers viewers an inside peek inside their heroes’ lives. From Jeremy McGrath’s private San Diego ranch, to Twitch’s backyard playground, to Chad Reed’s personal Compound 22, you’ll get to see places and things that most only dream of. Come with us as we document Josh Hill’s disastrous backflip attempt, and meet Adam Cianciarulo, the 14-year-old that many believe to be the future of our sport. Features: Ricky Carmichael, Adam Cianciarulo, Taka Higashino, Josh Hill, Jeremy McGrath, Chad Reed, Twitch, Eli Tomac, Jake Weimer, Nick Wey, Bilko, Dean Wilson, Kevin Windham, Ryan Villopoto, and more",
            "release_date": "2010-11-22"
        },
        {
            "vote_count": 0,
            "id": 330401,
            "video": false,
            "vote_average": 0,
            "title": "A Fresh Start",
            "popularity": 0.6,
            "poster_path": null,
            "original_language": "en",
            "original_title": "A Fresh Start",
            "genre_ids": [
                35
            ],
            "backdrop_path": null,
            "adult": false,
            "overview": "Two men are released from prison and while keeping up appearances, they steal everything they can from the guards hugging them farewell.",
            "release_date": "1920-07-20"
        }
    ]
}
